2001:16a2:c022:c25d:4109:1524:236a:6b79 - - [05/Mar/2021:12:05:11 +0000] "GET /ar/customer/section/load/?sections=cart%2Cdirectory-data%2Cmagepal-gtm-jsdatalayer%2Cmagepal-eegtm-jsdatalayer%2Cmessages&force_new_section_timestamp=false&_=1614945911200 HTTP/1.1" 200 11851 "https://www.saksooka.com/ar/accessories/cufflinks/config-seaman-seaman-luxury-u002-gold-u002semgd" "Mozilla/5.0 (iPhone; CPU iPhone OS 14_1 like Mac OS X) AppleWebKit/605.1.15 (KHTML, like Gecko) Version/14.0 Mobile/15E148 Safari/604.1"
176.19.246.98 - - [05/Mar/2021:12:05:19 +0000] "POST /ar/catalog/product/frontend_action_synchronize/ HTTP/1.0" 200 807 "https://www.saksooka.com/ar/sales/config-florra-lb-flex-6004-blue-6004flobl" "Mozilla/5.0 (iPhone; CPU iPhone OS 14_3 like Mac OS X) AppleWebKit/605.1.15 (KHTML, like Gecko) Version/14.0.2 Mobile/15E148 Snapchat/11.14.0.39 (like Safari/604.1)"
176.19.246.98 - - [05/Mar/2021:12:05:19 +0000] "POST /ar/catalog/product/frontend_action_synchronize/ HTTP/1.0" 200 807 "https://www.saksooka.com/ar/sales/config-florra-lb-flex-6004-blue-6004flobl" "Mozilla/5.0 (iPhone; CPU iPhone OS 14_3 like Mac OS X) AppleWebKit/605.1.15 (KHTML, like Gecko) Version/14.0.2 Mobile/15E148 Snapchat/11.14.0.39 (like Safari/604.1)"
151.255.216.123 - - [05/Mar/2021:12:05:24 +0000] "POST /ar/catalog/product/frontend_action_synchronize/ HTTP/1.0" 200 807 "https://www.saksooka.com/ar/sandalsa/shargy-sandals/config-florra-tamas-2000-bordo-2000flobo" "Mozilla/5.0 (iPhone; CPU iPhone OS 14_2 like Mac OS X) AppleWebKit/605.1.15 (KHTML, like Gecko) CriOS/87.0.4280.77 Mobile/15E148 Safari/604.1"
151.255.216.123 - - [05/Mar/2021:12:05:24 +0000] "POST /ar/catalog/product/frontend_action_synchronize/ HTTP/1.0" 200 807 "https://www.saksooka.com/ar/sandalsa/shargy-sandals/config-florra-tamas-2000-bordo-2000flobo" "Mozilla/5.0 (iPhone; CPU iPhone OS 14_2 like Mac OS X) AppleWebKit/605.1.15 (KHTML, like Gecko) CriOS/87.0.4280.77 Mobile/15E148 Safari/604.1"
176.19.246.98 - - [05/Mar/2021:12:05:24 +0000] "POST /ar/catalog/product/frontend_action_synchronize/ HTTP/1.0" 200 807 "https://www.saksooka.com/ar/sales/config-florra-lb-flex-6004-beige-6004flobg" "Mozilla/5.0 (iPhone; CPU iPhone OS 14_3 like Mac OS X) AppleWebKit/605.1.15 (KHTML, like Gecko) Version/14.0.2 Mobile/15E148 Snapchat/11.14.0.39 (like Safari/604.1)"
176.19.246.98 - - [05/Mar/2021:12:05:24 +0000] "POST /ar/catalog/product/frontend_action_synchronize/ HTTP/1.0" 200 807 "https://www.saksooka.com/ar/sales/config-florra-lb-flex-6004-beige-6004flobg" "Mozilla/5.0 (iPhone; CPU iPhone OS 14_3 like Mac OS X) AppleWebKit/605.1.15 (KHTML, like Gecko) Version/14.0.2 Mobile/15E148 Snapchat/11.14.0.39 (like Safari/604.1)"
95.185.144.164 - - [05/Mar/2021:12:05:03 +0000] "GET /ar/customer/section/load/?sections=messages%2Ccart%2Cdirectory-data%2Cmagepal-gtm-jsdatalayer%2Cmagepal-eegtm-jsdatalayer&force_new_section_timestamp=false&_=1614945902113 HTTP/1.1" 200 9474 "https://www.saksooka.com/ar/sandalsa/shargy-sandals/config-florra-lb-flex-6004-olive-6004flool" "Mozilla/5.0 (iPhone; CPU iPhone OS 14_4 like Mac OS X) AppleWebKit/605.1.15 (KHTML, like Gecko) Mobile/15E148 Instagram 177.0.0.20.117 (iPhone11,8; iOS 14_4; en_SA@calendar=gregorian; ar-SA; scale=2.00; 828x1792; 275424340)"
176.19.246.98 - - [05/Mar/2021:12:05:30 +0000] "POST /ar/catalog/product/frontend_action_synchronize/ HTTP/1.0" 200 807 "https://www.saksooka.com/ar/config-florra-lb-flex-6004-navy-6004flonv" "Mozilla/5.0 (iPhone; CPU iPhone OS 14_3 like Mac OS X) AppleWebKit/605.1.15 (KHTML, like Gecko) Version/14.0.2 Mobile/15E148 Snapchat/11.14.0.39 (like Safari/604.1)"
176.19.246.98 - - [05/Mar/2021:12:05:30 +0000] "POST /ar/catalog/product/frontend_action_synchronize/ HTTP/1.0" 200 807 "https://www.saksooka.com/ar/config-florra-lb-flex-6004-navy-6004flonv" "Mozilla/5.0 (iPhone; CPU iPhone OS 14_3 like Mac OS X) AppleWebKit/605.1.15 (KHTML, like Gecko) Version/14.0.2 Mobile/15E148 Snapchat/11.14.0.39 (like Safari/604.1)"
151.255.216.123 - - [05/Mar/2021:12:05:31 +0000] "POST /ar/catalog/product/frontend_action_synchronize/ HTTP/1.0" 200 807 "https://www.saksooka.com/ar/sandalsa/shargy-sandals/config-florra-tamas-2000-black-2000flobk" "Mozilla/5.0 (iPhone; CPU iPhone OS 14_2 like Mac OS X) AppleWebKit/605.1.15 (KHTML, like Gecko) CriOS/87.0.4280.77 Mobile/15E148 Safari/604.1"
151.255.216.123 - - [05/Mar/2021:12:05:31 +0000] "POST /ar/catalog/product/frontend_action_synchronize/ HTTP/1.0" 200 807 "https://www.saksooka.com/ar/sandalsa/shargy-sandals/config-florra-tamas-2000-black-2000flobk" "Mozilla/5.0 (iPhone; CPU iPhone OS 14_2 like Mac OS X) AppleWebKit/605.1.15 (KHTML, like Gecko) CriOS/87.0.4280.77 Mobile/15E148 Safari/604.1"
2001:16a2:c022:c25d:4109:1524:236a:6b79 - - [05/Mar/2021:12:05:11 +0000] "GET /ar/page_cache/block/render/id/7932/category/190/?blocks=%5B%22social-create-captcha%22%2C%22social-forgot-password-captcha%22%2C%22social-login-captcha%22%5D&handles=%5B%22default%22%2C%22catalog_product_view%22%2C%22catalog_product_view_id_7932%22%2C%22catalog_product_view_sku_U002SEMGD%22%2C%22catalog_product_view_type_configurable%22%2C%22instant_search%22%5D&originalRequest=%7B%22route%22%3A%22catalog%22%2C%22controller%22%3A%22product%22%2C%22action%22%3A%22view%22%2C%22uri%22%3A%22%2Far%2Faccessories%2Fcufflinks%2Fconfig-seaman-seaman-luxury-u002-gold-u002semgd%22%7D&version=bf0e3aeec99f5d01a7b9c557893e15cc HTTP/1.1" 200 570 "https://www.saksooka.com/ar/accessories/cufflinks/config-seaman-seaman-luxury-u002-gold-u002semgd" "Mozilla/5.0 (iPhone; CPU iPhone OS 14_1 like Mac OS X) AppleWebKit/605.1.15 (KHTML, like Gecko) Version/14.0 Mobile/15E148 Safari/604.1"
176.19.246.98 - - [05/Mar/2021:12:05:34 +0000] "POST /ar/catalog/product/frontend_action_synchronize/ HTTP/1.0" 200 807 "https://www.saksooka.com/ar/config-florra-lb-flex-6004-olive-6004flool" "Mozilla/5.0 (iPhone; CPU iPhone OS 14_3 like Mac OS X) AppleWebKit/605.1.15 (KHTML, like Gecko) Version/14.0.2 Mobile/15E148 Snapchat/11.14.0.39 (like Safari/604.1)"
176.19.246.98 - - [05/Mar/2021:12:05:34 +0000] "POST /ar/catalog/product/frontend_action_synchronize/ HTTP/1.0" 200 807 "https://www.saksooka.com/ar/config-florra-lb-flex-6004-olive-6004flool" "Mozilla/5.0 (iPhone; CPU iPhone OS 14_3 like Mac OS X) AppleWebKit/605.1.15 (KHTML, like Gecko) Version/14.0.2 Mobile/15E148 Snapchat/11.14.0.39 (like Safari/604.1)"
176.19.246.98 - - [05/Mar/2021:12:05:38 +0000] "POST /ar/catalog/product/frontend_action_synchronize/ HTTP/1.0" 200 807 "https://www.saksooka.com/ar/sales" "Mozilla/5.0 (iPhone; CPU iPhone OS 14_3 like Mac OS X) AppleWebKit/605.1.15 (KHTML, like Gecko) Version/14.0.2 Mobile/15E148 Snapchat/11.14.0.39 (like Safari/604.1)"
176.19.246.98 - - [05/Mar/2021:12:05:38 +0000] "POST /ar/catalog/product/frontend_action_synchronize/ HTTP/1.0" 200 807 "https://www.saksooka.com/ar/sales" "Mozilla/5.0 (iPhone; CPU iPhone OS 14_3 like Mac OS X) AppleWebKit/605.1.15 (KHTML, like Gecko) Version/14.0.2 Mobile/15E148 Snapchat/11.14.0.39 (like Safari/604.1)"
5.82.214.160 - - [05/Mar/2021:12:05:30 +0000] "POST /ar/rest/ar/V1/guest-carts/0wYkfijmnXHoLvtsUz3FK3QzhxnYieht/isEmailAvailable HTTP/1.0" 200 405 "https://www.saksooka.com/ar/onestepcheckout/" "Mozilla/5.0 (iPhone; CPU iPhone OS 14_4 like Mac OS X) AppleWebKit/605.1.15 (KHTML, like Gecko) Mobile/15E148 Instagram 177.0.0.20.117 (iPhone12,5; iOS 14_4; en_SA@calendar=gregorian; ar-SA; scale=3.00; 1242x2688; 275424340)"
2001:16a2:c022:c25d:4109:1524:236a:6b79 - - [05/Mar/2021:12:05:12 +0000] "POST /ar/catalog/product/frontend_action_synchronize/ HTTP/1.0" 200 609 "https://www.saksooka.com/ar/accessories/cufflinks/config-seaman-seaman-luxury-u002-gold-u002semgd" "Mozilla/5.0 (iPhone; CPU iPhone OS 14_1 like Mac OS X) AppleWebKit/605.1.15 (KHTML, like Gecko) Version/14.0 Mobile/15E148 Safari/604.1"
95.185.144.164 - - [05/Mar/2021:12:05:28 +0000] "GET /ar/customer/section/load/?sections=messages%2Ccart%2Cdirectory-data%2Cmagepal-gtm-jsdatalayer%2Cmagepal-eegtm-jsdatalayer&force_new_section_timestamp=false&_=1614945927377 HTTP/1.1" 200 9474 "https://www.saksooka.com/ar/sandalsa/shargy-sandals/config-florra-lb-flex-6004-brown-6004flobr" "Mozilla/5.0 (iPhone; CPU iPhone OS 14_4 like Mac OS X) AppleWebKit/605.1.15 (KHTML, like Gecko) Mobile/15E148 Instagram 177.0.0.20.117 (iPhone11,8; iOS 14_4; en_SA@calendar=gregorian; ar-SA; scale=2.00; 828x1792; 275424340)"
151.255.216.123 - - [05/Mar/2021:12:05:47 +0000] "POST /ar/catalog/product/frontend_action_synchronize/ HTTP/1.0" 200 807 "https://www.saksooka.com/ar/ar-sandals/shargy?p=2" "Mozilla/5.0 (iPhone; CPU iPhone OS 14_2 like Mac OS X) AppleWebKit/605.1.15 (KHTML, like Gecko) CriOS/87.0.4280.77 Mobile/15E148 Safari/604.1"
151.255.216.123 - - [05/Mar/2021:12:05:47 +0000] "POST /ar/catalog/product/frontend_action_synchronize/ HTTP/1.0" 200 807 "https://www.saksooka.com/ar/ar-sandals/shargy?p=2" "Mozilla/5.0 (iPhone; CPU iPhone OS 14_2 like Mac OS X) AppleWebKit/605.1.15 (KHTML, like Gecko) CriOS/87.0.4280.77 Mobile/15E148 Safari/604.1"
176.19.246.98 - - [05/Mar/2021:12:05:48 +0000] "GET /ar/customer/section/load/?sections=messages&force_new_section_timestamp=true&_=1614945938117 HTTP/1.1" 200 532 "https://www.saksooka.com/ar/sales" "Mozilla/5.0 (iPhone; CPU iPhone OS 14_3 like Mac OS X) AppleWebKit/605.1.15 (KHTML, like Gecko) Version/14.0.2 Mobile/15E148 Snapchat/11.14.0.39 (like Safari/604.1)"
176.19.246.98 - - [05/Mar/2021:12:05:48 +0000] "GET /ar/customer/section/load/?sections=messages&force_new_section_timestamp=true&_=1614945938118 HTTP/1.1" 200 532 "https://www.saksooka.com/ar/sales" "Mozilla/5.0 (iPhone; CPU iPhone OS 14_3 like Mac OS X) AppleWebKit/605.1.15 (KHTML, like Gecko) Version/14.0.2 Mobile/15E148 Snapchat/11.14.0.39 (like Safari/604.1)"
2001:16a2:c022:c25d:4109:1524:236a:6b79 - - [05/Mar/2021:12:05:12 +0000] "POST /ar/catalog/product/frontend_action_synchronize/ HTTP/1.0" 200 609 "https://www.saksooka.com/ar/accessories/cufflinks/config-seaman-seaman-luxury-u002-gold-u002semgd" "Mozilla/5.0 (iPhone; CPU iPhone OS 14_1 like Mac OS X) AppleWebKit/605.1.15 (KHTML, like Gecko) Version/14.0 Mobile/15E148 Safari/604.1"
95.185.144.164 - - [05/Mar/2021:12:05:36 +0000] "GET /ar/customer/section/load/?sections=messages%2Ccart%2Cdirectory-data%2Cmagepal-gtm-jsdatalayer%2Cmagepal-eegtm-jsdatalayer&force_new_section_timestamp=false&_=1614945935186 HTTP/1.1" 200 9474 "https://www.saksooka.com/ar/sandalsa/shargy-sandals/config-florra-lb-flex-6004-brown-6004flobr" "Mozilla/5.0 (iPhone; CPU iPhone OS 14_4 like Mac OS X) AppleWebKit/605.1.15 (KHTML, like Gecko) Mobile/15E148 Instagram 177.0.0.20.117 (iPhone11,8; iOS 14_4; en_SA@calendar=gregorian; ar-SA; scale=2.00; 828x1792; 275424340)"
2001:16a2:c022:c25d:4109:1524:236a:6b79 - - [05/Mar/2021:12:05:18 +0000] "POST /ar/catalog/product/frontend_action_synchronize/ HTTP/1.0" 200 609 "https://www.saksooka.com/ar/accessories/cufflinks/config-seaman-seaman-luxury-u001-black-u001sembk" "Mozilla/5.0 (iPhone; CPU iPhone OS 14_1 like Mac OS X) AppleWebKit/605.1.15 (KHTML, like Gecko) Version/14.0 Mobile/15E148 Safari/604.1"
95.185.144.164 - - [05/Mar/2021:12:05:23 +0000] "GET /ar/customer/section/load/?sections=messages%2Ccart%2Cdirectory-data%2Cmagepal-gtm-jsdatalayer%2Cmagepal-eegtm-jsdatalayer&force_new_section_timestamp=false&_=1614945922561 HTTP/1.1" 200 9474 "https://www.saksooka.com/ar/sandalsa/shargy-sandals/config-florra-lb-flex-6004-navy-6004flonv" "Mozilla/5.0 (iPhone; CPU iPhone OS 14_4 like Mac OS X) AppleWebKit/605.1.15 (KHTML, like Gecko) Mobile/15E148 Instagram 177.0.0.20.117 (iPhone11,8; iOS 14_4; en_SA@calendar=gregorian; ar-SA; scale=2.00; 828x1792; 275424340)"
95.185.144.164 - - [05/Mar/2021:12:05:10 +0000] "GET /ar/customer/section/load/?sections=messages%2Ccart%2Cdirectory-data%2Cmagepal-gtm-jsdatalayer%2Cmagepal-eegtm-jsdatalayer&force_new_section_timestamp=false&_=1614945909864 HTTP/1.1" 200 9474 "https://www.saksooka.com/ar/sandalsa/shargy-sandals/config-florra-lb-flex-6004-navy-6004flonv" "Mozilla/5.0 (iPhone; CPU iPhone OS 14_4 like Mac OS X) AppleWebKit/605.1.15 (KHTML, like Gecko) Mobile/15E148 Instagram 177.0.0.20.117 (iPhone11,8; iOS 14_4; en_SA@calendar=gregorian; ar-SA; scale=2.00; 828x1792; 275424340)"
2001:16a2:c022:c25d:4109:1524:236a:6b79 - - [05/Mar/2021:12:05:17 +0000] "GET /ar/page_cache/block/render/id/7924/category/190/?blocks=%5B%22social-create-captcha%22%2C%22social-forgot-password-captcha%22%2C%22social-login-captcha%22%5D&handles=%5B%22default%22%2C%22catalog_product_view%22%2C%22catalog_product_view_id_7924%22%2C%22catalog_product_view_sku_U001SEMBK%22%2C%22catalog_product_view_type_configurable%22%2C%22instant_search%22%5D&originalRequest=%7B%22route%22%3A%22catalog%22%2C%22controller%22%3A%22product%22%2C%22action%22%3A%22view%22%2C%22uri%22%3A%22%2Far%2Faccessories%2Fcufflinks%2Fconfig-seaman-seaman-luxury-u001-black-u001sembk%22%7D&version=bf0e3aeec99f5d01a7b9c557893e15cc HTTP/1.1" 200 570 "https://www.saksooka.com/ar/accessories/cufflinks/config-seaman-seaman-luxury-u001-black-u001sembk" "Mozilla/5.0 (iPhone; CPU iPhone OS 14_1 like Mac OS X) AppleWebKit/605.1.15 (KHTML, like Gecko) Version/14.0 Mobile/15E148 Safari/604.1"
95.185.144.164 - - [05/Mar/2021:12:05:47 +0000] "POST /ar/catalog/product/frontend_action_synchronize/ HTTP/1.0" 200 609 "https://www.saksooka.com/ar/sandalsa/shargy-sandals/config-florra-lb-flex-6004-black-6004flobk" "Mozilla/5.0 (iPhone; CPU iPhone OS 14_4 like Mac OS X) AppleWebKit/605.1.15 (KHTML, like Gecko) Mobile/15E148 Instagram 177.0.0.20.117 (iPhone11,8; iOS 14_4; en_SA@calendar=gregorian; ar-SA; scale=2.00; 828x1792; 275424340)"
95.185.144.164 - - [05/Mar/2021:12:05:07 +0000] "POST /ar/catalog/product/frontend_action_synchronize/ HTTP/1.0" 200 609 "https://www.saksooka.com/ar/sandalsa/shargy-sandals/config-florra-lb-flex-6004-olive-6004flool" "Mozilla/5.0 (iPhone; CPU iPhone OS 14_4 like Mac OS X) AppleWebKit/605.1.15 (KHTML, like Gecko) Mobile/15E148 Instagram 177.0.0.20.117 (iPhone11,8; iOS 14_4; en_SA@calendar=gregorian; ar-SA; scale=2.00; 828x1792; 275424340)"
2001:16a2:c022:c25d:4109:1524:236a:6b79 - - [05/Mar/2021:12:05:17 +0000] "GET /ar/customer/section/load/?sections=cart%2Cdirectory-data%2Cmagepal-gtm-jsdatalayer%2Cmagepal-eegtm-jsdatalayer%2Cmessages&force_new_section_timestamp=false&_=1614945916893 HTTP/1.1" 200 11686 "https://www.saksooka.com/ar/accessories/cufflinks/config-seaman-seaman-luxury-u001-black-u001sembk" "Mozilla/5.0 (iPhone; CPU iPhone OS 14_1 like Mac OS X) AppleWebKit/605.1.15 (KHTML, like Gecko) Version/14.0 Mobile/15E148 Safari/604.1"
95.185.144.164 - - [05/Mar/2021:12:05:28 +0000] "POST /ar/catalog/product/frontend_action_synchronize/ HTTP/1.0" 200 609 "https://www.saksooka.com/ar/sandalsa/shargy-sandals/config-florra-lb-flex-6004-brown-6004flobr" "Mozilla/5.0 (iPhone; CPU iPhone OS 14_4 like Mac OS X) AppleWebKit/605.1.15 (KHTML, like Gecko) Mobile/15E148 Instagram 177.0.0.20.117 (iPhone11,8; iOS 14_4; en_SA@calendar=gregorian; ar-SA; scale=2.00; 828x1792; 275424340)"
2001:16a2:c022:c25d:4109:1524:236a:6b79 - - [05/Mar/2021:12:05:17 +0000] "POST /ar/catalog/product/frontend_action_synchronize/ HTTP/1.0" 200 609 "https://www.saksooka.com/ar/accessories/cufflinks/config-seaman-seaman-luxury-u001-black-u001sembk" "Mozilla/5.0 (iPhone; CPU iPhone OS 14_1 like Mac OS X) AppleWebKit/605.1.15 (KHTML, like Gecko) Version/14.0 Mobile/15E148 Safari/604.1"
95.185.144.164 - - [05/Mar/2021:12:05:29 +0000] "POST /ar/catalog/product/frontend_action_synchronize/ HTTP/1.0" 200 609 "https://www.saksooka.com/ar/sandalsa/shargy-sandals/config-florra-lb-flex-6004-brown-6004flobr" "Mozilla/5.0 (iPhone; CPU iPhone OS 14_4 like Mac OS X) AppleWebKit/605.1.15 (KHTML, like Gecko) Mobile/15E148 Instagram 177.0.0.20.117 (iPhone11,8; iOS 14_4; en_SA@calendar=gregorian; ar-SA; scale=2.00; 828x1792; 275424340)"
95.185.144.164 - - [05/Mar/2021:12:05:15 +0000] "POST /ar/catalog/product/frontend_action_synchronize/ HTTP/1.0" 200 609 "https://www.saksooka.com/ar/sandalsa/shargy-sandals/config-florra-lb-flex-6004-black-6004flobk" "Mozilla/5.0 (iPhone; CPU iPhone OS 14_4 like Mac OS X) AppleWebKit/605.1.15 (KHTML, like Gecko) Mobile/15E148 Instagram 177.0.0.20.117 (iPhone11,8; iOS 14_4; en_SA@calendar=gregorian; ar-SA; scale=2.00; 828x1792; 275424340)"
95.185.144.164 - - [05/Mar/2021:12:05:24 +0000] "POST /ar/catalog/product/frontend_action_synchronize/ HTTP/1.0" 200 609 "https://www.saksooka.com/ar/sandalsa/shargy-sandals/config-florra-lb-flex-6004-navy-6004flonv" "Mozilla/5.0 (iPhone; CPU iPhone OS 14_4 like Mac OS X) AppleWebKit/605.1.15 (KHTML, like Gecko) Mobile/15E148 Instagram 177.0.0.20.117 (iPhone11,8; iOS 14_4; en_SA@calendar=gregorian; ar-SA; scale=2.00; 828x1792; 275424340)"
2001:16a2:c043:f4a9:41e5:890e:2400:7ad6 - - [05/Mar/2021:12:05:47 +0000] "GET /ar/visamasterhyperpay/visamasterhyperpay/checkpayment/?id=8acda4a277f76b9401780246be2d1978&resourcePath=%2Fv1%2Fpayments%2F8acda4a277f76b9401780246be2d1978 HTTP/1.1" 302 1510 "https://oppwa.com/v1/redirect.html?redirectUrl=https://www.saksooka.com/ar/visamasterhyperpay/visamasterhyperpay/checkpayment/?id%3D8acda4a277f76b9401780246be2d1978%26resourcePath%3D/v1/payments/8acda4a277f76b9401780246be2d1978&ndc=8ac9a4cd6e36d34f016e3b1bb61b1a22_6ecaf27d395f46d4a19045e250eaaa04&target=_self&method=GET&shopOrigin" "Mozilla/5.0 (iPhone; CPU iPhone OS 14_4 like Mac OS X) AppleWebKit/605.1.15 (KHTML, like Gecko) Mobile/15E148 Instagram 176.0.0.18.112 (iPhone12,5; iOS 14_4; en_SA; ar-SA; scale=3.00; 1242x2688; 274198434)"
95.185.144.164 - - [05/Mar/2021:12:05:46 +0000] "GET /ar/customer/section/load/?sections=messages%2Ccart%2Cdirectory-data%2Cmagepal-gtm-jsdatalayer%2Cmagepal-eegtm-jsdatalayer&force_new_section_timestamp=false&_=1614945945717 HTTP/1.1" 200 9474 "https://www.saksooka.com/ar/sandalsa/shargy-sandals/config-florra-lb-flex-6004-black-6004flobk" "Mozilla/5.0 (iPhone; CPU iPhone OS 14_4 like Mac OS X) AppleWebKit/605.1.15 (KHTML, like Gecko) Mobile/15E148 Instagram 177.0.0.20.117 (iPhone11,8; iOS 14_4; en_SA@calendar=gregorian; ar-SA; scale=2.00; 828x1792; 275424340)"
95.185.144.164 - - [05/Mar/2021:12:05:03 +0000] "POST /ar/catalog/product/frontend_action_synchronize/ HTTP/1.0" 200 609 "https://www.saksooka.com/ar/sandalsa/shargy-sandals/config-florra-lb-flex-6004-olive-6004flool" "Mozilla/5.0 (iPhone; CPU iPhone OS 14_4 like Mac OS X) AppleWebKit/605.1.15 (KHTML, like Gecko) Mobile/15E148 Instagram 177.0.0.20.117 (iPhone11,8; iOS 14_4; en_SA@calendar=gregorian; ar-SA; scale=2.00; 828x1792; 275424340)"
95.185.144.164 - - [05/Mar/2021:12:05:57 +0000] "POST /ar/catalog/product/frontend_action_synchronize/ HTTP/1.0" 200 609 "https://www.saksooka.com/ar/sandalsa/shargy-sandals/config-florra-lb-flex-6004-olive-6004flool" "Mozilla/5.0 (iPhone; CPU iPhone OS 14_4 like Mac OS X) AppleWebKit/605.1.15 (KHTML, like Gecko) Mobile/15E148 Instagram 177.0.0.20.117 (iPhone11,8; iOS 14_4; en_SA@calendar=gregorian; ar-SA; scale=2.00; 828x1792; 275424340)"
95.185.144.164 - - [05/Mar/2021:12:05:56 +0000] "POST /ar/catalog/product/frontend_action_synchronize/ HTTP/1.0" 200 609 "https://www.saksooka.com/ar/sandalsa/shargy-sandals/config-florra-lb-flex-6004-olive-6004flool" "Mozilla/5.0 (iPhone; CPU iPhone OS 14_4 like Mac OS X) AppleWebKit/605.1.15 (KHTML, like Gecko) Mobile/15E148 Instagram 177.0.0.20.117 (iPhone11,8; iOS 14_4; en_SA@calendar=gregorian; ar-SA; scale=2.00; 828x1792; 275424340)"
95.185.144.164 - - [05/Mar/2021:12:05:56 +0000] "GET /ar/customer/section/load/?sections=messages%2Ccart%2Cdirectory-data%2Cmagepal-gtm-jsdatalayer%2Cmagepal-eegtm-jsdatalayer&force_new_section_timestamp=false&_=1614945955533 HTTP/1.1" 200 9474 "https://www.saksooka.com/ar/sandalsa/shargy-sandals/config-florra-lb-flex-6004-olive-6004flool" "Mozilla/5.0 (iPhone; CPU iPhone OS 14_4 like Mac OS X) AppleWebKit/605.1.15 (KHTML, like Gecko) Mobile/15E148 Instagram 177.0.0.20.117 (iPhone11,8; iOS 14_4; en_SA@calendar=gregorian; ar-SA; scale=2.00; 828x1792; 275424340)"
95.185.144.164 - - [05/Mar/2021:12:05:36 +0000] "POST /ar/catalog/product/frontend_action_synchronize/ HTTP/1.0" 200 609 "https://www.saksooka.com/ar/sandalsa/shargy-sandals/config-florra-lb-flex-6004-brown-6004flobr" "Mozilla/5.0 (iPhone; CPU iPhone OS 14_4 like Mac OS X) AppleWebKit/605.1.15 (KHTML, like Gecko) Mobile/15E148 Instagram 177.0.0.20.117 (iPhone11,8; iOS 14_4; en_SA@calendar=gregorian; ar-SA; scale=2.00; 828x1792; 275424340)"
95.185.144.164 - - [05/Mar/2021:12:05:16 +0000] "POST /ar/catalog/product/frontend_action_synchronize/ HTTP/1.0" 200 609 "https://www.saksooka.com/ar/sandalsa/shargy-sandals/config-florra-lb-flex-6004-black-6004flobk" "Mozilla/5.0 (iPhone; CPU iPhone OS 14_4 like Mac OS X) AppleWebKit/605.1.15 (KHTML, like Gecko) Mobile/15E148 Instagram 177.0.0.20.117 (iPhone11,8; iOS 14_4; en_SA@calendar=gregorian; ar-SA; scale=2.00; 828x1792; 275424340)"
95.185.144.164 - - [05/Mar/2021:12:05:11 +0000] "POST /ar/catalog/product/frontend_action_synchronize/ HTTP/1.0" 200 609 "https://www.saksooka.com/ar/sandalsa/shargy-sandals/config-florra-lb-flex-6004-navy-6004flonv" "Mozilla/5.0 (iPhone; CPU iPhone OS 14_4 like Mac OS X) AppleWebKit/605.1.15 (KHTML, like Gecko) Mobile/15E148 Instagram 177.0.0.20.117 (iPhone11,8; iOS 14_4; en_SA@calendar=gregorian; ar-SA; scale=2.00; 828x1792; 275424340)"
95.185.144.164 - - [05/Mar/2021:12:05:10 +0000] "POST /ar/catalog/product/frontend_action_synchronize/ HTTP/1.0" 200 609 "https://www.saksooka.com/ar/sandalsa/shargy-sandals/config-florra-lb-flex-6004-navy-6004flonv" "Mozilla/5.0 (iPhone; CPU iPhone OS 14_4 like Mac OS X) AppleWebKit/605.1.15 (KHTML, like Gecko) Mobile/15E148 Instagram 177.0.0.20.117 (iPhone11,8; iOS 14_4; en_SA@calendar=gregorian; ar-SA; scale=2.00; 828x1792; 275424340)"
95.185.144.164 - - [05/Mar/2021:12:05:15 +0000] "GET /ar/customer/section/load/?sections=messages%2Ccart%2Cdirectory-data%2Cmagepal-gtm-jsdatalayer%2Cmagepal-eegtm-jsdatalayer&force_new_section_timestamp=false&_=1614945914614 HTTP/1.1" 200 11690 "https://www.saksooka.com/ar/sandalsa/shargy-sandals/config-florra-lb-flex-6004-black-6004flobk" "Mozilla/5.0 (iPhone; CPU iPhone OS 14_4 like Mac OS X) AppleWebKit/605.1.15 (KHTML, like Gecko) Mobile/15E148 Instagram 177.0.0.20.117 (iPhone11,8; iOS 14_4; en_SA@calendar=gregorian; ar-SA; scale=2.00; 828x1792; 275424340)"
95.185.144.164 - - [05/Mar/2021:12:05:52 +0000] "POST /ar/catalog/product/frontend_action_synchronize/ HTTP/1.0" 200 609 "https://www.saksooka.com/ar/sandalsa/shargy-sandals/config-florra-lb-flex-6004-olive-6004flool" "Mozilla/5.0 (iPhone; CPU iPhone OS 14_4 like Mac OS X) AppleWebKit/605.1.15 (KHTML, like Gecko) Mobile/15E148 Instagram 177.0.0.20.117 (iPhone11,8; iOS 14_4; en_SA@calendar=gregorian; ar-SA; scale=2.00; 828x1792; 275424340)"
95.185.144.164 - - [05/Mar/2021:12:05:51 +0000] "POST /ar/catalog/product/frontend_action_synchronize/ HTTP/1.0" 200 609 "https://www.saksooka.com/ar/sandalsa/shargy-sandals/config-florra-lb-flex-6004-olive-6004flool" "Mozilla/5.0 (iPhone; CPU iPhone OS 14_4 like Mac OS X) AppleWebKit/605.1.15 (KHTML, like Gecko) Mobile/15E148 Instagram 177.0.0.20.117 (iPhone11,8; iOS 14_4; en_SA@calendar=gregorian; ar-SA; scale=2.00; 828x1792; 275424340)"
66.249.65.197 - - [05/Mar/2021:12:05:14 +0000] "GET /en/shoe?mgs_brand=103,110,155,111,109 HTTP/1.1" 200 31271 "-" "Mozilla/5.0 (Linux; Android 6.0.1; Nexus 5X Build/MMB29P) AppleWebKit/537.36 (KHTML, like Gecko) Chrome/88.0.4324.188 Mobile Safari/537.36 (compatible; Googlebot/2.1; +http://www.google.com/bot.html)"
95.185.144.164 - - [05/Mar/2021:12:05:46 +0000] "POST /ar/catalog/product/frontend_action_synchronize/ HTTP/1.0" 200 609 "https://www.saksooka.com/ar/sandalsa/shargy-sandals/config-florra-lb-flex-6004-black-6004flobk" "Mozilla/5.0 (iPhone; CPU iPhone OS 14_4 like Mac OS X) AppleWebKit/605.1.15 (KHTML, like Gecko) Mobile/15E148 Instagram 177.0.0.20.117 (iPhone11,8; iOS 14_4; en_SA@calendar=gregorian; ar-SA; scale=2.00; 828x1792; 275424340)"
95.185.144.164 - - [05/Mar/2021:12:05:07 +0000] "GET /ar/customer/section/load/?sections=messages%2Ccart%2Cdirectory-data%2Cmagepal-gtm-jsdatalayer%2Cmagepal-eegtm-jsdatalayer&force_new_section_timestamp=false&_=1614945906510 HTTP/1.1" 200 11690 "https://www.saksooka.com/ar/sandalsa/shargy-sandals/config-florra-lb-flex-6004-olive-6004flool" "Mozilla/5.0 (iPhone; CPU iPhone OS 14_4 like Mac OS X) AppleWebKit/605.1.15 (KHTML, like Gecko) Mobile/15E148 Instagram 177.0.0.20.117 (iPhone11,8; iOS 14_4; en_SA@calendar=gregorian; ar-SA; scale=2.00; 828x1792; 275424340)"
95.185.144.164 - - [05/Mar/2021:12:05:31 +0000] "POST /ar/catalog/product/frontend_action_synchronize/ HTTP/1.0" 200 609 "https://www.saksooka.com/ar/sandalsa/shargy-sandals/config-florra-lb-flex-6004-black-6004flobk" "Mozilla/5.0 (iPhone; CPU iPhone OS 14_4 like Mac OS X) AppleWebKit/605.1.15 (KHTML, like Gecko) Mobile/15E148 Instagram 177.0.0.20.117 (iPhone11,8; iOS 14_4; en_SA@calendar=gregorian; ar-SA; scale=2.00; 828x1792; 275424340)"
114.119.137.249 - - [05/Mar/2021:12:05:27 +0000] "GET /ar/ar-shoes?mgs_brand=103%2C156%2C111%2C100&size=54%2C59%2C56%2C58 HTTP/1.1" 200 39172 "-" "Mozilla/5.0 (Linux; Android 7.0;) AppleWebKit/537.36 (KHTML, like Gecko) Mobile Safari/537.36 (compatible; PetalBot;+https://aspiegel.com/petalbot)"
114.119.141.30 - - [05/Mar/2021:12:05:55 +0000] "GET /ar/ar-sandals?mgs_brand=156%2C100%2C103&size=61%2C60%2C62%2C58%2C55 HTTP/1.1" 200 41387 "-" "Mozilla/5.0 (Linux; Android 7.0;) AppleWebKit/537.36 (KHTML, like Gecko) Mobile Safari/537.36 (compatible; PetalBot;+https://aspiegel.com/petalbot)"
95.185.144.164 - - [05/Mar/2021:12:05:23 +0000] "POST /ar/catalog/product/frontend_action_synchronize/ HTTP/1.0" 200 609 "https://www.saksooka.com/ar/sandalsa/shargy-sandals/config-florra-lb-flex-6004-navy-6004flonv" "Mozilla/5.0 (iPhone; CPU iPhone OS 14_4 like Mac OS X) AppleWebKit/605.1.15 (KHTML, like Gecko) Mobile/15E148 Instagram 177.0.0.20.117 (iPhone11,8; iOS 14_4; en_SA@calendar=gregorian; ar-SA; scale=2.00; 828x1792; 275424340)"
31.167.210.171 - - [05/Mar/2021:12:05:55 +0000] "GET /ar/ar-sandals/shargy?utm_source=Fb&utm_medium=cpa&utm_campaign=23847049463090358&utm_content=23847082830660358&fbclid=PAAaYlihjl0WfUUoAay4UXerol3d5QCzoG79uKLIl0dbsI1gusAoWvfPUhjgk_aem_Abzr6uGxMjqP40lU3D4wsYSm1peHV21DcHGgWt0iRa8KsUAJ7CmiqPOHqLsC1fyFkqBU0Py5CNjciaMykNqecjS8Y-8tU5g_ETR4Z5ZZ8T6fTQ HTTP/1.1" 200 44668 "-" "Mozilla/5.0 (iPhone; CPU iPhone OS 14_0 like Mac OS X) AppleWebKit/605.1.15 (KHTML, like Gecko) Mobile/15E148 Instagram 177.0.0.20.117 (iPhone11,8; iOS 14_0; en_SA@calendar=gregorian; ar-SA; scale=2.00; 828x1792; 275424340)"
5.109.140.232 - - [05/Mar/2021:12:05:15 +0000] "GET /ar/ar-sandals/shargy?utm_source=23846991919790358&utm_medium=Instagram_Feed&utm_campaign=Remarketing+-+Copy&fbclid=PAAabHchXK8NmZoKztU0oX-_q-d845k310PCP-Pw4ei30nnzFkxOXawk7Z3h0_aem_Aby2QDxcdKQVHUTDlJutfqhvs1DsgbxucXyzFdI8OfKIbAPt3nrcrjqqEFmfGQntwHVp5Yoq6HwWMPaP0fqtHgDXgzpYQSl0IJcnlpsMELfsJw HTTP/1.1" 200 44707 "-" "Mozilla/5.0 (iPhone; CPU iPhone OS 14_0_1 like Mac OS X) AppleWebKit/605.1.15 (KHTML, like Gecko) Mobile/15E148 Instagram 177.0.0.20.117 (iPhone10,6; iOS 14_0_1; en_SA@calendar=gregorian; ar-SA; scale=3.00; 1125x2436; 275424340)"
95.185.144.164 - - [05/Mar/2021:12:05:32 +0000] "POST /ar/catalog/product/frontend_action_synchronize/ HTTP/1.0" 200 609 "https://www.saksooka.com/ar/sandalsa/shargy-sandals/config-florra-lb-flex-6004-black-6004flobk" "Mozilla/5.0 (iPhone; CPU iPhone OS 14_4 like Mac OS X) AppleWebKit/605.1.15 (KHTML, like Gecko) Mobile/15E148 Instagram 177.0.0.20.117 (iPhone11,8; iOS 14_4; en_SA@calendar=gregorian; ar-SA; scale=2.00; 828x1792; 275424340)"
95.185.144.164 - - [05/Mar/2021:12:05:51 +0000] "GET /ar/customer/section/load/?sections=messages%2Ccart%2Cdirectory-data%2Cmagepal-gtm-jsdatalayer%2Cmagepal-eegtm-jsdatalayer&force_new_section_timestamp=false&_=1614945950473 HTTP/1.1" 200 13748 "https://www.saksooka.com/ar/sandalsa/shargy-sandals/config-florra-lb-flex-6004-olive-6004flool" "Mozilla/5.0 (iPhone; CPU iPhone OS 14_4 like Mac OS X) AppleWebKit/605.1.15 (KHTML, like Gecko) Mobile/15E148 Instagram 177.0.0.20.117 (iPhone11,8; iOS 14_4; en_SA@calendar=gregorian; ar-SA; scale=2.00; 828x1792; 275424340)"
95.185.144.164 - - [05/Mar/2021:12:05:31 +0000] "GET /ar/customer/section/load/?sections=messages%2Ccart%2Cdirectory-data%2Cmagepal-gtm-jsdatalayer%2Cmagepal-eegtm-jsdatalayer&force_new_section_timestamp=false&_=1614945930442 HTTP/1.1" 200 13748 "https://www.saksooka.com/ar/sandalsa/shargy-sandals/config-florra-lb-flex-6004-black-6004flobk" "Mozilla/5.0 (iPhone; CPU iPhone OS 14_4 like Mac OS X) AppleWebKit/605.1.15 (KHTML, like Gecko) Mobile/15E148 Instagram 177.0.0.20.117 (iPhone11,8; iOS 14_4; en_SA@calendar=gregorian; ar-SA; scale=2.00; 828x1792; 275424340)"
95.185.144.164 - - [05/Mar/2021:12:05:37 +0000] "POST /ar/catalog/product/frontend_action_synchronize/ HTTP/1.0" 200 609 "https://www.saksooka.com/ar/sandalsa/shargy-sandals/config-florra-lb-flex-6004-brown-6004flobr" "Mozilla/5.0 (iPhone; CPU iPhone OS 14_4 like Mac OS X) AppleWebKit/605.1.15 (KHTML, like Gecko) Mobile/15E148 Instagram 177.0.0.20.117 (iPhone11,8; iOS 14_4; en_SA@calendar=gregorian; ar-SA; scale=2.00; 828x1792; 275424340)"
